^C:\ПРОГЕРСКИЕ ПРОГИ\UE4PT1_19\UE4PT1_19.CPP
C:\Прогерские проги\UE4PT1_19\X64\DEBUG\VC143.PDB
C:\Прогерские проги\UE4PT1_19\X64\DEBUG\VC143.IDB
C:\Прогерские проги\UE4PT1_19\X64\DEBUG\UE4PT1_19.OBJ
