^C:\ПРОГЕРСКИЕ ПРОГИ\UE4PT1_19\X64\DEBUG\UE4PT1_19.OBJ
C:\Прогерские проги\UE4PT1_19\X64\DEBUG\UE4PT1_19.EXE
C:\Прогерские проги\UE4PT1_19\X64\DEBUG\UE4PT1_19.ILK
C:\Прогерские проги\UE4PT1_19\X64\DEBUG\UE4PT1_19.PDB
